Verilog-124-239/ VerilogBM-124-239.vcd
$date
	Tue Nov  7 22:48:21 2017
$end
$version
	Icarus Verilog
$end
$timescale
	1s
$end
$scope module Verilog_124_239 $end
$var wire 8 ! newkey [7:0] $end
$var wire 8 " enc_data [7:0] $end
$var wire 8 # de_data [7:0] $end
$var reg 1 $ clk $end
$var reg 8 % data [7:0] $end
$var reg 1 & sel $end
$scope module m $end
$var wire 1 $ clk $end
$var wire 8 ' data [7:0] $end
$var wire 1 & sel $end
$var wire 8 ( oldkey [7:0] $end
$var wire 8 ) newkey [7:0] $end
$var wire 8 * midkey [7:0] $end
$var wire 8 + feedback [7:0] $end
$var wire 8 , en_data [7:0] $end
$var wire 8 - de_data [7:0] $end
$var reg 8 . dec_data [7:0] $end
$var reg 8 / enc_data [7:0] $end
$scope module m $end
$var wire 1 & sel $end
$var wire 8 0 in0 [7:0] $end
$var reg 8 1 out [7:0] $end
$upscope $end
$scope module m0 $end
$var wire 8 2 in [7:0] $end
$var wire 3 3 sel [2:0] $end
$var reg 1 4 out $end
$upscope $end
$scope module m1 $end
$var wire 8 5 in [7:0] $end
$var wire 3 6 sel [2:0] $end
$var reg 1 7 out $end
$upscope $end
$scope module m2 $end
$var wire 8 8 in [7:0] $end
$var wire 3 9 sel [2:0] $end
$var reg 1 : out $end
$upscope $end
$scope module m3 $end
$var wire 8 ; in [7:0] $end
$var wire 3 < sel [2:0] $end
$var reg 1 = out $end
$upscope $end
$scope module m4 $end
$var wire 8 > in [7:0] $end
$var wire 3 ? sel [2:0] $end
$var reg 1 @ out $end
$upscope $end
$scope module m5 $end
$var wire 8 A in [7:0] $end
$var wire 3 B sel [2:0] $end
$var reg 1 C out $end
$upscope $end
$scope module m6 $end
$var wire 8 D in [7:0] $end
$var wire 3 E sel [2:0] $end
$var reg 1 F out $end
$upscope $end
$scope module m7 $end
$var wire 8 G in [7:0] $end
$var wire 3 H sel [2:0] $end
$var reg 1 I out $end
$upscope $end
$scope module s1 $end
$var wire 1 $ clk $end
$var wire 8 J in [7:0] $end
$var reg 8 K out [7:0] $end
$upscope $end
$scope module s2 $end
$var wire 1 L clk $end
$var wire 8 M in [7:0] $end
$var reg 8 N out [7:0] $end
$upscope $end
$scope module x $end
$var wire 8 O in [7:0] $end
$var wire 8 P key [7:0] $end
$var reg 8 Q out [7:0] $end
$var integer 32 R i [31:0] $end
$upscope $end
$scope module x1 $end
$var wire 8 S in [7:0] $end
$var wire 8 T key [7:0] $end
$var reg 8 U out [7:0] $end
$var integer 32 V i [31:0] $end
$upscope $end
$upscope $end
$upscope $end
$enddefinitions $end
#0
$dumpvars
b1000 V
bx U
b11000 T
bx S
b1000 R
bx Q
bx P
b0 O
bx N
bx M
1L
bx K
b11000 J
xI
bx H
b11110 G
xF
bx E
b11110 D
xC
bx B
b11110 A
x@
bx ?
b11110 >
x=
bx <
b11110 ;
x:
bx 9
b11110 8
x7
bx 6
b11110 5
x4
bx 3
b11110 2
b11000 1
bx 0
bx /
bx .
bx -
bx ,
bx +
bx *
bx )
b11000 (
b0 '
1&
b0 %
0$
bx #
bx "
b11000 !
$end
#5
0I
0F
1C
0@
1=
1:
07
b101100 )
b101100 M
04
b0 H
b0 E
b100 B
b110 ?
b11 <
b1 9
b0 6
b0 3
0L
b11000 *
b11000 K
1$
#10
b0 #
b0 .
b0 -
b0 U
b101100 "
b101100 /
b1000 V
b101100 ,
b101100 Q
b101100 S
b101100 !
b101100 (
b101100 1
b101100 J
b101100 T
b1000 R
b101100 +
b101100 0
b101100 N
b101100 P
1L
0$
0&
#15
1F
0=
b1100110 )
b1100110 M
17
b100 E
b10 B
b101 ?
b110 <
b11 9
b1 6
0L
b101100 *
b101100 K
1$
#20
b10001010 #
b10001010 .
b10001010 -
b10001010 U
b1000 V
b11101100 "
b11101100 /
b1100110 !
b1100110 (
b1100110 1
b1100110 J
b1100110 T
b11101100 ,
b11101100 Q
b11101100 S
b1100110 +
b1100110 0
b1100110 N
b1100110 P
1L
b1000 R
0$
b10001010 %
b10001010 '
b10001010 O
#25
1I
0F
1@
1=
0:
b10111011 )
b10111011 M
14
b100 H
b110 E
b11 B
b1 ?
b100 <
b110 9
b11 6
b1 3
0L
b1100110 *
b1100110 K
1$
#30
b10001011 #
b10001011 .
b10001011 -
b10001011 U
b1000 V
b110000 "
b110000 /
b10111011 !
b10111011 (
b10111011 1
b10111011 J
b10111011 T
b110000 ,
b110000 Q
b110000 S
b10111011 +
b10111011 0
b10111011 N
b10111011 P
1L
b1000 R
0$
b10001011 %
b10001011 '
b10001011 O
#35
0C
0@
07
b10001000 )
b10001000 M
04
b11 H
b101 E
b110 B
b111 ?
b11 <
b101 9
b110 6
b111 3
0L
b10111011 *
b10111011 K
1$
#40
b10001000 #
b10001000 .
b10001000 -
b10001000 U
b1000 V
b0 "
b0 /
b10001000 !
b10001000 (
b10001000 1
b10001000 J
b10001000 T
b0 ,
b0 Q
b0 S
b10001000 +
b10001000 0
b10001000 N
b10001000 P
1L
b1000 R
0$
b10001000 %
b10001000 '
b10001000 O
#45
1F
1@
1:
b11011101 )
b11011101 M
14
b10 H
b1 E
b0 B
b100 ?
b10 <
b1 9
b0 6
b100 3
0L
b10001000 *
b10001000 K
1$
#50
b10000110 #
b10000110 .
b10000110 -
b10000110 U
b1000 V
b1011011 "
b1011011 /
b11011101 !
b11011101 (
b11011101 1
b11011101 J
b11011101 T
b1011011 ,
b1011011 Q
b1011011 S
b11011101 +
b11011101 0
b11011101 N
b11011101 P
1L
b1000 R
0$
b10000110 %
b10000110 '
b10000110 O
#55
0I
0@
0=
b1000100 )
b1000100 M
04
b111 H
b11 E
b101 B
b110 ?
b111 <
b11 9
b101 6
b110 3
0L
b11011101 *
b11011101 K
1$
#60
b10110000 #
b10110000 .
b10110000 -
b10110000 U
b1000 V
b11110100 "
b11110100 /
b1000100 !
b1000100 (
b1000100 1
b1000100 J
b1000100 T
b11110100 ,
b11110100 Q
b11110100 S
b1000100 +
b1000100 0
b1000100 N
b1000100 P
1L
b1000 R
0$
b10110000 %
b10110000 '
b10110000 O
#65
1I
1C
1=
b11101110 )
b11101110 M
17
b100 H
b10 E
b1 B
b0 ?
b100 <
b10 9
b1 6
b0 3
0L
b1000100 *
b1000100 K
1$
#70
b10000111 #
b10000111 .
b10000111 -
b10000111 U
b1000 V
b1101001 "
b1101001 /
b11101110 !
b11101110 (
b11101110 1
b11101110 J
b11101110 T
b1101001 ,
b1101001 Q
b1101001 S
b11101110 +
b11101110 0
b11101110 N
b11101110 P
1L
b1000 R
0$
b10000111 %
b10000111 '
b10000111 O
#75
0I
0F
0=
b100010 )
b100010 M
0:
b110 H
b111 E
b11 B
b101 ?
b110 <
b111 9
b11 6
b101 3
0L
b11101110 *
b11101110 K
1$
#80
b10100111 #
b10100111 .
b10100111 -
b10100111 U
b1000 V
b10000101 "
b10000101 /
b100010 !
b100010 (
b100010 1
b100010 J
b100010 T
b10000101 ,
b10000101 Q
b10000101 S
b100010 +
b100010 0
b100010 N
b100010 P
1L
b1000 R
0$
b10100111 %
b10100111 '
b10100111 O
#85
1F
1@
1:
b1110111 )
b1110111 M
14
b0 H
b100 E
b10 B
b1 ?
b0 <
b100 9
b10 6
b1 3
0L
b100010 *
b100010 K
1$
#90
b11100101 #
b11100101 .
b11100101 -
b11100101 U
b1000 V
b10010010 "
b10010010 /
b1110111 !
b1110111 (
b1110111 1
b1110111 J
b1110111 T
b10010010 ,
b10010010 Q
b10010010 S
b1110111 +
b1110111 0
b1110111 N
b1110111 P
1L
b1000 R
0$
b11100101 %
b11100101 '
b11100101 O
#95
0F
0C
0:
b10001 )
b10001 M
07
b101 H
b110 E
b111 B
b11 ?
b101 <
b110 9
b111 6
b11 3
0L
b1110111 *
b1110111 K
1$
#100
b10100111 #
b10100111 .
b10100111 -
b10100111 U
b1000 V
b10110110 "
b10110110 /
b10001 !
b10001 (
b10001 1
b10001 J
b10001 T
b10110110 ,
b10110110 Q
b10110110 S
b10001 +
b10001 0
b10001 N
b10001 P
1L
b1000 R
0$
b10100111 %
b10100111 '
b10100111 O
